%YAML 1.1
%TAG !u! tag:unity3d.com,2011:
--- !u!1 &4727392540577562763
GameObject:
  m_ObjectHideFlags: 0
  m_CorrespondingSourceObject: {fileID: 0}
  m_PrefabInstance: {fileID: 0}
  m_PrefabAsset: {fileID: 0}
  serializedVersion: 6
  m_Component:
  - component: {fileID: 4727392540577562764}
  - component: {fileID: 4727392540577562765}
  m_Layer: 0
  m_Name: EnemyBrain
  m_TagString: Untagged
  m_Icon: {fileID: 0}
  m_NavMeshLayer: 0
  m_StaticEditorFlags: 0
  m_IsActive: 1
--- !u!4 &4727392540577562764
Transform:
  m_ObjectHideFlags: 0
  m_CorrespondingSourceObject: {fileID: 0}
  m_PrefabInstance: {fileID: 0}
  m_PrefabAsset: {fileID: 0}
  m_GameObject: {fileID: 4727392540577562763}
  m_LocalRotation: {x: -0, y: -0, z: -0, w: 1}
  m_LocalPosition: {x: 4.9942627, y: -16.718931, z: 10.522655}
  m_LocalScale: {x: 1, y: 1, z: 1}
  m_ConstrainProportionsScale: 0
  m_Children: []
  m_Father: {fileID: 0}
  m_RootOrder: 0
  m_LocalEulerAnglesHint: {x: 0, y: 0, z: 0}
--- !u!114 &4727392540577562765
MonoBehaviour:
  m_ObjectHideFlags: 0
  m_CorrespondingSourceObject: {fileID: 0}
  m_PrefabInstance: {fileID: 0}
  m_PrefabAsset: {fileID: 0}
  m_GameObject: {fileID: 4727392540577562763}
  m_Enabled: 1
  m_EditorHideFlags: 0
  m_Script: {fileID: 11500000, guid: 23357eef41ce2d94dbd02403068dc731, type: 3}
  m_Name: 
  m_EditorClassIdentifier: 
  behaviourSet:
  - behaviourType: 1
    frontSpawnMultiplier: 1
    midSpawnMultiplier: 2
    backSpawnMultiplier: 4
    towerSet: {fileID: 11400000, guid: 01627a12a7c4a3443819a83189a123dc, type: 2}
  - behaviourType: 0
    frontSpawnMultiplier: 1
    midSpawnMultiplier: 1
    backSpawnMultiplier: 1
    towerSet: {fileID: 11400000, guid: 01627a12a7c4a3443819a83189a123dc, type: 2}
  - behaviourType: 2
    frontSpawnMultiplier: 4
    midSpawnMultiplier: 2
    backSpawnMultiplier: 1
    towerSet: {fileID: 11400000, guid: 01627a12a7c4a3443819a83189a123dc, type: 2}
  currentEnemyBehaviour:
    behaviourType: 0
    frontSpawnMultiplier: 1
    midSpawnMultiplier: 1
    backSpawnMultiplier: 1
    towerSet: {fileID: 0}
  currentTurnTickets: 100
  nextTurnTickets: 0
  newTurntickets: 100
  targetBehavior: 0
  changeBehavior: 0
