%YAML 1.1
%TAG !u! tag:unity3d.com,2011:
--- !u!114 &11400000
MonoBehaviour:
  m_ObjectHideFlags: 0
  m_CorrespondingSourceObject: {fileID: 0}
  m_PrefabInstance: {fileID: 0}
  m_PrefabAsset: {fileID: 0}
  m_GameObject: {fileID: 0}
  m_Enabled: 1
  m_EditorHideFlags: 0
  m_Script: {fileID: 11500000, guid: f309bb168bcfb5e46bb0136cb089b60e, type: 3}
  m_Name: LevelStartingResources 4B
  m_EditorClassIdentifier: 
  <ResourceAmountData>k__BackingField:
  - <ResourceType>k__BackingField: 0
    <Amount>k__BackingField: 18
  - <ResourceType>k__BackingField: 1
    <Amount>k__BackingField: 0
  - <ResourceType>k__BackingField: 2
    <Amount>k__BackingField: 0
  - <ResourceType>k__BackingField: 3
    <Amount>k__BackingField: 10
