%YAML 1.1
%TAG !u! tag:unity3d.com,2011:
--- !u!114 &-7485661390020775132
MonoBehaviour:
  m_ObjectHideFlags: 11
  m_CorrespondingSourceObject: {fileID: 0}
  m_PrefabInstance: {fileID: 0}
  m_PrefabAsset: {fileID: 0}
  m_GameObject: {fileID: 0}
  m_Enabled: 1
  m_EditorHideFlags: 0
  m_Script: {fileID: 11500000, guid: d0353a89b1f911e48b9e16bdc9f2e058, type: 3}
  m_Name: 
  m_EditorClassIdentifier: 
  version: 5
--- !u!21 &2100000
Material:
  serializedVersion: 8
  m_ObjectHideFlags: 0
  m_CorrespondingSourceObject: {fileID: 0}
  m_PrefabInstance: {fileID: 0}
  m_PrefabAsset: {fileID: 0}
  m_Name: M_SlimeWater
  m_Shader: {fileID: -6465566751694194690, guid: 98a7dbb80dfb4314988721e511faa530,
    type: 3}
  m_ValidKeywords: []
  m_InvalidKeywords: []
  m_LightmapFlags: 4
  m_EnableInstancingVariants: 0
  m_DoubleSidedGI: 0
  m_CustomRenderQueue: -1
  stringTagMap: {}
  disabledShaderPasses: []
  m_SavedProperties:
    serializedVersion: 3
    m_TexEnvs:
    - unity_Lightmaps:
        m_Texture: {fileID: 0}
        m_Scale: {x: 1, y: 1}
        m_Offset: {x: 0, y: 0}
    - unity_LightmapsInd:
        m_Texture: {fileID: 0}
        m_Scale: {x: 1, y: 1}
        m_Offset: {x: 0, y: 0}
    - unity_ShadowMasks:
        m_Texture: {fileID: 0}
        m_Scale: {x: 1, y: 1}
        m_Offset: {x: 0, y: 0}
    m_Ints: []
    m_Floats:
    - _Highlight_Size: 0.999
    - _QueueControl: 0
    - _QueueOffset: 0
    - _Step: 0.569
    - _TimeScale: 0.02
    m_Colors:
    - _Boundry_Color: {r: 0, g: 1, b: 0.96078444, a: 0}
    - _Color: {r: 0.5137255, g: 0.8568318, b: 0.8862745, a: 0}
    - _Color_1: {r: 0.12335351, g: 0.6059826, b: 0.7924528, a: 0}
    - _Color_2: {r: 0.19999997, g: 0.7115581, b: 0.8980392, a: 0}
  m_BuildTextureStacks: []
