%YAML 1.1
%TAG !u! tag:unity3d.com,2011:
--- !u!114 &11400000
MonoBehaviour:
  m_ObjectHideFlags: 0
  m_CorrespondingSourceObject: {fileID: 0}
  m_PrefabInstance: {fileID: 0}
  m_PrefabAsset: {fileID: 0}
  m_GameObject: {fileID: 0}
  m_Enabled: 1
  m_EditorHideFlags: 0
  m_Script: {fileID: 11500000, guid: afa85f9c16fb4c142806529061b5c137, type: 3}
  m_Name: ThunderTowerData
  m_EditorClassIdentifier: 
  <TowerName>k__BackingField: DummyTower
  <Range>k__BackingField: 5
  <SearchRefreshSpeed>k__BackingField: 2
  <AttackSpeed>k__BackingField: 3
  <Cost>k__BackingField: 75
  <Level>k__BackingField: 1
  <MaxHealth>k__BackingField: 80
  <StrengthsAndWeaknesses>k__BackingField: {fileID: 11400000, guid: 3ef4982d04a2e2040ab4fdd98544a8ca,
    type: 2}
  <ElementType>k__BackingField: 0
  <DestroyedTowerReward>k__BackingField:
  - <ResourceType>k__BackingField: 0
    <Amount>k__BackingField: 6
