%YAML 1.1
%TAG !u! tag:unity3d.com,2011:
--- !u!114 &11400000
MonoBehaviour:
  m_ObjectHideFlags: 0
  m_CorrespondingSourceObject: {fileID: 0}
  m_PrefabInstance: {fileID: 0}
  m_PrefabAsset: {fileID: 0}
  m_GameObject: {fileID: 0}
  m_Enabled: 1
  m_EditorHideFlags: 0
  m_Script: {fileID: 11500000, guid: 5ffd4993d04b6394b9d954aaa8045668, type: 3}
  m_Name: AbilitySpeedUpEffectData
  m_EditorClassIdentifier: 
  <EffectValue>k__BackingField: 0
  <EffectDuration>k__BackingField: 3
  <EffectDamageFrequency>k__BackingField: 0
  <ParticleType>k__BackingField: 5
