%YAML 1.1
%TAG !u! tag:unity3d.com,2011:
--- !u!114 &11400000
MonoBehaviour:
  m_ObjectHideFlags: 0
  m_CorrespondingSourceObject: {fileID: 0}
  m_PrefabInstance: {fileID: 0}
  m_PrefabAsset: {fileID: 0}
  m_GameObject: {fileID: 0}
  m_Enabled: 1
  m_EditorHideFlags: 0
  m_Script: {fileID: 11500000, guid: 5b26df28f7b99a447be24a83ff656898, type: 3}
  m_Name: SlimeRanged
  m_EditorClassIdentifier: 
  <SlimeName>k__BackingField: DummySlime
  <Damage>k__BackingField: 10
  <ObjectiveDamage>k__BackingField: 1
  <Range>k__BackingField: 4
  <AttackSpeed>k__BackingField: 2
  <EffectDuration>k__BackingField: 0
  <EffectDamageFrequency>k__BackingField: 0
  <Cost>k__BackingField: 10
  <Level>k__BackingField: 10
  <MovementSpeed>k__BackingField: 2
  <MaxHealth>k__BackingField: 10
  <StrengthsAndWeaknesses>k__BackingField: {fileID: 11400000, guid: 3ef4982d04a2e2040ab4fdd98544a8ca,
    type: 2}
  <ElementType>k__BackingField: 0
  <ResourceAmountArrayData>k__BackingField: {fileID: 11400000, guid: ccb84b8becad61948baef2508f089164,
    type: 2}
  <SlimePrefab>k__BackingField: {fileID: 9024685454686284941, guid: a0d825c21d3a1334db69a1ecb5d0a83b,
    type: 3}
