%YAML 1.1
%TAG !u! tag:unity3d.com,2011:
--- !u!114 &11400000
MonoBehaviour:
  m_ObjectHideFlags: 0
  m_CorrespondingSourceObject: {fileID: 0}
  m_PrefabInstance: {fileID: 0}
  m_PrefabAsset: {fileID: 0}
  m_GameObject: {fileID: 0}
  m_Enabled: 1
  m_EditorHideFlags: 0
  m_Script: {fileID: 11500000, guid: 5193830fd429b3a4c97e032927f715a8, type: 3}
  m_Name: HealthSystemFire
  m_EditorClassIdentifier: 
  <EntityElementType>k__BackingField: 1
  <ResistElementType>k__BackingField: 3
  <CounterElementType>k__BackingField: 2
  <CounterMultiplier>k__BackingField: 1.5
  <ResistMultiplier>k__BackingField: 0.5
