%YAML 1.1
%TAG !u! tag:unity3d.com,2011:
--- !u!114 &11400000
MonoBehaviour:
  m_ObjectHideFlags: 0
  m_CorrespondingSourceObject: {fileID: 0}
  m_PrefabInstance: {fileID: 0}
  m_PrefabAsset: {fileID: 0}
  m_GameObject: {fileID: 0}
  m_Enabled: 1
  m_EditorHideFlags: 0
  m_Script: {fileID: 11500000, guid: 5fee1ff9383db6245ac52b65220702f5, type: 3}
  m_Name: TowerSet 1
  m_EditorClassIdentifier: 
  TowerSetList:
  - {fileID: 1434401885907235477, guid: 1e5e1b968156e30429c034237f3e68db, type: 3}
