%YAML 1.1
%TAG !u! tag:unity3d.com,2011:
--- !u!1045 &1
EditorBuildSettings:
  m_ObjectHideFlags: 0
  serializedVersion: 2
  m_Scenes:
  - enabled: 1
    path: Assets/Scenes/ScenesForBuild/Menus/Main.unity
    guid: bf12790abbb4ce84eb157fa56e555bf6
  - enabled: 1
    path: Assets/Scenes/ScenesForBuild/Menus/LevelSelectionScene3D.unity
    guid: 1c620259112e2e44bac13aa9bb3d086e
  - enabled: 1
    path: Assets/Scenes/ScenesForBuild/Menus/WinScene.unity
    guid: 77387aa94939ffd4e9baa8a52d5c70a4
  - enabled: 1
    path: Assets/Scenes/ScenesForBuild/Menus/LostScene.unity
    guid: 378b91ca26caf414787d853dedb0c26d
  - enabled: 1
    path: Assets/Scenes/ScenesForBuild/Levels/B/Level1B.unity
    guid: 4ed9e45c3d45cdf4fbe2acb971f471c6
  - enabled: 1
    path: Assets/Scenes/ScenesForBuild/Levels/B/Level2B.unity
    guid: dbdf4f19477a57a47988a51f394f669f
  - enabled: 1
    path: Assets/Scenes/ScenesForBuild/Levels/B/Level3B.unity
    guid: 77804fb78e3cd484686586dc9476526c
  - enabled: 1
    path: Assets/Scenes/ScenesForBuild/Levels/B/Level4B.unity
    guid: ef89c4898491b9a4381e2aba9501548b
  - enabled: 1
    path: Assets/Scenes/ScenesForBuild/Levels/B/Level5B.unity
    guid: 560da110a705ca34b9b4c94540545afb
  - enabled: 1
    path: Assets/Scenes/ScenesForBuild/Levels/B/Level6B.unity
    guid: b69d90c9a95a54c4ca1f8b758201b3ae
  - enabled: 1
    path: Assets/Scenes/ScenesForBuild/Levels/B/Level7B.unity
    guid: c69fffbdd986c9b448ae8709f12b059e
  m_configObjects: {}
