%YAML 1.1
%TAG !u! tag:unity3d.com,2011:
--- !u!114 &11400000
MonoBehaviour:
  m_ObjectHideFlags: 0
  m_CorrespondingSourceObject: {fileID: 0}
  m_PrefabInstance: {fileID: 0}
  m_PrefabAsset: {fileID: 0}
  m_GameObject: {fileID: 0}
  m_Enabled: 1
  m_EditorHideFlags: 0
  m_Script: {fileID: 11500000, guid: ee11bd1e89030a04c8ac51ff2aa88a57, type: 3}
  m_Name: Level2A
  m_EditorClassIdentifier: 
  sceneName: Level2A
  maxTurns: 5
  slimesPassedToWin: 12
  resourcesGainedPerTurn:
  - <ResourceType>k__BackingField: 0
    <Amount>k__BackingField: 10
  - <ResourceType>k__BackingField: 1
    <Amount>k__BackingField: 0
  - <ResourceType>k__BackingField: 2
    <Amount>k__BackingField: 0
  - <ResourceType>k__BackingField: 3
    <Amount>k__BackingField: 0
  startTurnTickets: 50
  nextTurnTickets: 55
  startingResources: {fileID: 11400000, guid: 968d4e9080b308f4b82aea3e1e173877, type: 2}
